,T,O,H,L,C,V,BV
0,2017-12-01T12:30:00,34.77,34.90103699,34.5000003,34.72000005,1126.14314399,39189.2442936
1,2017-12-01T13:00:00,34.6787553,35.9,34.3,34.87,7674.82468136,271399.297764
2,2017-12-01T13:30:00,34.99999999,35.38115,34.70103715,35.17000009,5712.65958739,200323.700214
3,2017-12-01T14:00:00,35.17000112,35.38114999,34.33000001,35.0,10629.6386445,371995.811948
4,2017-12-01T14:30:00,35.0,35.19899998,34.40000001,34.6,2911.72355816,101206.52734
5,2017-12-01T15:00:00,34.60000022,34.99999999,34.3,34.76,2156.53025287,74498.5521381
6,2017-12-01T15:30:00,34.76,35.3,34.65104475,35.28499993,1818.74029958,63830.7979874
7,2017-12-01T16:00:00,35.2,35.85,34.7999651,34.93416,4837.1959118,170326.067735
8,2017-12-01T16:30:00,34.93316,35.49496429,34.85000032,35.29999963,1735.27608952,60910.4880273
9,2017-12-01T17:00:00,35.29999964,35.3999646,34.88,35.37,3105.20192745,109224.701847
10,2017-12-01T17:30:00,35.37,35.56308406,35.00000002,35.18775534,2462.86519292,87159.7748379
11,2017-12-01T18:00:00,35.18775534,35.18775534,35.00010001,35.17,598.30386307,20984.787394
12,2017-12-01T18:30:00,35.17,35.36457823,35.003105,35.24091253,498.66405067,17573.5374091
13,2017-12-01T19:00:00,35.19,35.34044374,35.14013445,35.24999998,1455.33174981,51240.5925798
14,2017-12-01T19:30:00,35.24999998,35.453,35.2,35.30996652,2717.52023666,95995.3390231
15,2017-12-01T20:00:00,35.22,35.25,35.1,35.15310531,663.10537223,23306.9480787
16,2017-12-01T20:30:00,35.203105,35.8467026,35.203105,35.50000017,4624.74718131,164518.609485
17,2017-12-01T21:00:00,35.50000017,35.75,35.15000001,35.60999748,2693.09302603,95523.2854362
18,2017-12-01T21:30:00,35.60999748,36.3,35.36200332,36.09,5711.55873598,205004.051235
19,2017-12-01T22:00:00,36.0,36.0,35.6000007,35.8,1556.79992775,55562.2225572
20,2017-12-01T22:30:00,35.8,35.94987999,35.31,35.719887,958.3508959,34017.9208008
21,2017-12-01T23:00:00,35.719887,35.719887,35.0,35.0900001,2065.29050675,72613.9649097
22,2017-12-01T23:30:00,35.0900001,35.49,35.05083248,35.46,1138.04502256,40121.9986849
23,2017-12-02T00:00:00,35.2400143,35.89999999,35.2400143,35.75,1796.23742355,64036.3928189
24,2017-12-02T00:30:00,35.75,36.13,35.50100001,35.64999988,2606.43693489,93117.9725256
25,2017-12-02T01:00:00,35.64999998,36.001,35.501,35.83768803,1013.62067517,36395.4075286
26,2017-12-02T01:30:00,35.83768803,36.298,35.501,35.81000002,5342.636913,192397.875296
27,2017-12-02T02:00:00,36.29763395,36.29763399,35.83000055,36.06997717,946.22618167,34126.6233633
28,2017-12-02T02:30:00,36.06997715,36.42282116,35.9,36.0361,4559.2899477,165314.600195
29,2017-12-02T03:00:00,36.0361,36.25099999,35.74000026,35.74000026,1819.77545695,65324.9379841
30,2017-12-02T03:30:00,35.74000026,35.99899961,35.0,35.36796009,3540.02320931,125248.396782
31,2017-12-02T04:00:00,35.49258,35.5029992,34.8,35.3,7075.78580536,249594.052573
32,2017-12-02T04:30:00,35.0382991,35.5000001,35.01508142,35.3,1692.34914562,59508.2320149
33,2017-12-02T05:00:00,35.06003925,35.42999999,35.0,35.39699997,1676.19194158,58757.2545263
34,2017-12-02T05:30:00,35.1055001,35.43946077,35.1055,35.43946077,1185.12610363,41709.7969901
35,2017-12-02T06:00:00,35.43946077,35.808,35.43946077,35.8,1943.68047819,69348.9606414
36,2017-12-02T06:30:00,35.8,35.82042,35.51000002,35.53713612,1495.12990984,53284.0801242
37,2017-12-02T07:00:00,35.53713721,35.99,35.53713721,35.97399911,467.05268303,16688.3763024
38,2017-12-02T07:30:00,35.9,36.1,35.58913727,36.1,4432.89284316,159323.211508
39,2017-12-02T08:00:00,36.1,36.5,35.80002017,36.5,7886.41769907,286302.814948
40,2017-12-02T08:30:00,36.39000001,36.49000001,35.9,36.1002,2457.89496431,88752.9299966
41,2017-12-02T09:00:00,36.00000001,36.489888,36.00000001,36.479,2672.14143921,96753.4554108
42,2017-12-02T09:30:00,36.34,36.47399973,35.90000001,36.10001,3966.27329051,142947.503443
43,2017-12-02T10:00:00,36.10001011,36.45,36.1,36.23999845,1586.21643896,57479.238512
44,2017-12-02T10:30:00,36.11060606,36.1939983,35.86276128,35.86276128,1012.31140622,36509.0338097
45,2017-12-02T11:00:00,35.86276128,35.99999926,35.0,35.0,5248.34316983,185868.469115
46,2017-12-02T11:30:00,35.0,35.3,34.65,35.2,4139.3385269,144903.140349
47,2017-12-02T12:00:00,35.2,35.5,35.192,35.19203,2224.69291641,78511.0820959
48,2017-12-02T12:30:00,35.18203,35.64131999,35.18203,35.32809288,514.57360904,18243.0856352
49,2017-12-02T13:00:00,35.4,35.64131999,35.3000353,35.634,925.88417201,32918.491605
50,2017-12-02T13:30:00,35.62508661,35.6766666,35.19203,35.19203,1473.66883405,52269.390186
51,2017-12-02T14:00:00,35.19203,35.44999958,34.59203,34.68,3603.8303292,125868.109228
52,2017-12-02T14:30:00,34.68,34.99999996,34.3247293,34.99999956,6058.8218334,209420.688769
53,2017-12-02T15:00:00,34.99,35.00000117,34.66,34.665,2214.31351185,77180.1057811
54,2017-12-02T15:30:00,34.665,34.89399943,34.33,34.6,3036.23632845,104878.352355
55,2017-12-02T16:00:00,34.60799945,34.9,34.59761719,34.8649468,1167.19178452,40573.8774425
56,2017-12-02T16:30:00,34.94599902,35.04,34.8649468,35.03944631,891.56972041,31191.7452485
57,2017-12-02T17:00:00,35.03944631,35.4,35.00000002,35.30000026,879.43652966,30911.9540282
58,2017-12-02T17:30:00,35.30400787,35.60777,35.3000001,35.60777,2214.53816432,78514.4405707
59,2017-12-02T18:00:00,35.6,35.60777,35.5012601,35.55,650.98404313,23146.0095161
60,2017-12-02T18:30:00,35.589,35.66,35.50126,35.641,1417.07453627,50429.1121209
61,2017-12-02T19:00:00,35.55000004,35.551,35.3011,35.4,1241.28850247,43975.2661512
62,2017-12-02T19:30:00,35.4,35.49799976,35.200001,35.3,653.94865224,23098.6030641
63,2017-12-02T20:00:00,35.29996466,35.4,35.2,35.2,1044.37402081,36898.3184782
64,2017-12-02T20:30:00,35.29999998,35.36465,35.19000001,35.19000001,236.06394169,8323.7589723
65,2017-12-02T21:00:00,35.4,35.5,35.25000001,35.5,673.31935416,23886.6722508
66,2017-12-02T21:30:00,35.5,35.62289999,35.5,35.62289999,681.33103136,24211.9905237
67,2017-12-02T22:00:00,35.58,35.62289998,35.284,35.284,590.23403438,20916.5574295
68,2017-12-02T22:30:00,35.4869992,35.4869992,35.284,35.40000002,953.56866664,33679.6092374
69,2017-12-02T23:00:00,35.43852381,35.45981846,35.1,35.1,1436.03505443,50607.9403321
70,2017-12-02T23:30:00,35.15000001,35.40899994,35.1,35.31364928,1461.51559458,51453.5030506
71,2017-12-03T00:00:00,35.1,35.31464989,35.1,35.3,306.38244749,10773.7872457
72,2017-12-03T00:30:00,35.30000001,35.56299833,34.8,35.14482,1012.72472178,35571.3347321
73,2017-12-03T01:00:00,35.00000001,35.00000001,34.80024098,34.99999999,546.00936051,19099.6530538
74,2017-12-03T01:30:00,34.95,35.29999999,34.81020001,35.29999901,273.51470978,9612.25701564
75,2017-12-03T02:00:00,35.2,35.3,35.09943842,35.3,169.41482103,5948.79292256
76,2017-12-03T02:30:00,35.29,35.3,35.15,35.15,223.84366418,7875.34233874
77,2017-12-03T03:00:00,35.15,35.15,35.0,35.09943828,1189.67294981,41695.5048497
78,2017-12-03T03:30:00,35.0,35.74302989,35.0,35.74302989,1064.67881299,37843.5083754
79,2017-12-03T04:00:00,35.70000027,35.90776997,35.21068521,35.56000002,2278.24494026,81527.5883056
80,2017-12-03T04:30:00,35.55000002,35.6739898,35.23011614,35.35000825,1514.09741674,53652.9493026
81,2017-12-03T05:00:00,35.55129384,35.76000004,35.35200001,35.76000002,3311.04924428,117986.160051
82,2017-12-03T05:30:00,35.76000002,35.9,35.61696002,35.8,1273.99189376,45653.3039456
83,2017-12-03T06:00:00,35.8,36.0,35.61696003,35.74643999,1322.4865142,47554.2970553
84,2017-12-03T06:30:00,35.75,36.0,35.61696003,36.0,1122.51691598,40286.125694
85,2017-12-03T07:00:00,36.0,36.15,35.61696038,35.9,3826.40347539,137864.66322
86,2017-12-03T07:30:00,35.8641,35.8641,35.70000005,35.828136,788.81629393,28211.0608377
87,2017-12-03T08:00:00,35.828136,36.3,35.828136,36.00000001,3556.8790719,128486.681621
88,2017-12-03T08:30:00,36.00000001,36.233979,35.86400002,36.0,1387.05413449,49931.4949231
89,2017-12-03T09:00:00,36.0,36.19999998,35.94552809,35.99,1626.99090465,58663.746545
90,2017-12-03T09:30:00,35.99,36.36315,35.87100001,36.29999999,1960.58511384,70864.3929454
91,2017-12-03T10:00:00,36.20243159,36.35549999,35.99999801,36.30996368,945.05774101,34193.1494368
92,2017-12-03T10:30:00,36.30996368,37.0,36.24000001,36.98,8144.32364071,298604.26516
93,2017-12-03T11:00:00,36.98,37.5,36.8,37.25000055,10728.7241176,398956.454865
94,2017-12-03T11:30:00,37.25000055,37.5,37.06375039,37.188,10081.7418087,375421.722928
95,2017-12-03T12:00:00,37.188,37.6,37.0637504,37.06375045,7631.96169166,284295.818248
96,2017-12-03T12:30:00,37.06375041,37.43438779,37.06375039,37.27031927,2845.47842683,105731.280044
97,2017-12-03T13:00:00,37.21926278,37.35,37.0,37.33456779,5057.71698945,187707.534044
98,2017-12-03T13:30:00,37.33456778,37.76353,37.11000016,37.76353,3779.53307979,141614.738609
99,2017-12-03T14:00:00,37.76353,37.9533,37.10000024,37.2,4499.44601313,169163.845238
100,2017-12-03T14:30:00,37.2,37.59999999,37.0,37.59999999,2528.366061,93958.1629511
101,2017-12-03T15:00:00,37.59999999,37.88881798,37.2399,37.62107669,2549.48969679,96021.5864102
102,2017-12-03T15:30:00,37.799,37.888,37.25,37.25775721,3919.00073074,147807.807141
103,2017-12-03T16:00:00,37.25775721,37.72000003,37.2000001,37.56,2950.16200549,110518.506658
104,2017-12-03T16:30:00,37.5,37.8,37.2711178,37.3,3079.44359108,115630.454959
105,2017-12-03T17:00:00,37.3,38.0,37.3,37.99,5396.6060761,204042.286746
106,2017-12-03T17:30:00,38.0,38.75,37.8,38.49998999,16634.5192773,638189.441741
107,2017-12-03T18:00:00,38.49998999,39.04,38.35000008,38.75,9184.64920087,356693.028305
108,2017-12-03T18:30:00,38.75,38.90999999,38.5232,38.75,4231.96277067,163843.270222
109,2017-12-03T19:00:00,38.74989995,38.89999998,38.6,38.73,3739.10555291,144862.271872
110,2017-12-03T19:30:00,38.73,38.899,38.35,38.66200001,3990.61372567,153938.084451
111,2017-12-03T20:00:00,38.66200001,39.45053,38.58000001,39.00375003,11059.652572,432828.379032
112,2017-12-03T20:30:00,39.00375003,39.19999999,37.95343902,38.1,21632.6615445,834510.533017
113,2017-12-03T21:00:00,38.02003818,38.85,37.58515293,37.73575,10928.062675,417847.30479
114,2017-12-03T21:30:00,37.73575,37.99999998,36.43462,36.79999996,18093.4363278,669966.869394
115,2017-12-03T22:00:00,36.79999996,36.9008,35.2400005,36.9008,13516.4593531,486350.73801
116,2017-12-03T22:30:00,36.8708,37.27261,36.15742848,37.06,6943.61629487,255401.833863
117,2017-12-03T23:00:00,37.05999999,37.27738675,36.51003915,36.70259998,2559.61698005,94372.3488939
118,2017-12-03T23:30:00,36.8,36.8,36.16000048,36.55,3466.43951923,126121.618931
119,2017-12-04T00:00:00,36.57312,37.08624,36.553,37.08624,3406.1510333,125888.769434
120,2017-12-04T00:30:00,37.05,37.49,37.0,37.10100005,1621.35861669,60478.3630325
121,2017-12-04T01:00:00,37.10100005,37.64815,37.0,37.39599905,4165.00394745,155933.619277
122,2017-12-04T01:30:00,37.4,37.6545,37.4,37.40001,1325.03081468,49724.4969461
123,2017-12-04T02:00:00,37.40001,37.40001,36.92476768,37.39400836,1579.99776937,58698.7934237
124,2017-12-04T02:30:00,37.18000361,37.19,36.4,36.96903589,2808.02098292,103198.959002
125,2017-12-04T03:00:00,36.85199999,37.20925394,36.7300002,37.08041692,263.78179683,9791.31976103
126,2017-12-04T03:30:00,37.08,37.2,37.06041692,37.19999999,347.57430841,12886.1523814
127,2017-12-04T04:00:00,37.19999999,37.4,37.061,37.066,1201.89049211,44742.2105293
128,2017-12-04T04:30:00,37.071,37.5,37.071,37.46249989,949.89396169,35494.2096613
129,2017-12-04T05:00:00,37.34999989,38.8,37.34999989,38.50000013,7136.40644374,273581.544038
130,2017-12-04T05:30:00,38.50000013,38.79999999,37.75,37.75,3485.36437812,133347.761827
131,2017-12-04T06:00:00,37.8,38.0,37.73575,37.99620997,1425.76894921,53944.4716625
132,2017-12-04T06:30:00,37.95,37.989,37.80001,37.92,1220.12880406,46205.6114037
133,2017-12-04T07:00:00,37.92,37.989,37.77,37.989,1234.92996894,46767.2633474
134,2017-12-04T07:30:00,37.989,38.62121062,37.989,38.62121062,5180.54304207,198523.133223
135,2017-12-04T08:00:00,38.48589622,38.69892247,38.146,38.45,1634.44004694,62795.3794517
136,2017-12-04T08:30:00,38.37,38.41999898,38.16,38.30799996,1290.37416984,49354.9900383
137,2017-12-04T09:00:00,38.30799996,38.308,38.14550041,38.14550051,1663.05714885,63672.3232052
138,2017-12-04T09:30:00,38.14550051,38.75,38.14550051,38.5,3419.08917632,131408.599677
139,2017-12-04T10:00:00,38.49,38.6,37.4,37.44,7155.00998305,271179.341495
140,2017-12-04T10:30:00,37.47,38.34,37.44,38.25000052,3448.85257191,131367.322688
141,2017-12-04T11:00:00,38.30431695,38.41065,37.82604218,38.4,2194.69076661,83928.5918903
142,2017-12-04T11:30:00,38.40989997,39.11,38.14703164,38.16862236,12424.8690644,480937.352579
143,2017-12-04T12:00:00,38.14703165,39.2,38.11596,39.01000275,7939.73108861,306885.569498
144,2017-12-04T12:30:00,39.01000275,40.0,39.0000001,39.40300002,32059.6612639,1270401.15288
145,2017-12-04T13:00:00,39.40300003,39.73699998,37.67969496,38.00200147,13826.2399476,533321.608723
146,2017-12-04T13:30:00,38.3,40.66,38.00300232,40.51,19094.4991412,759725.188243
147,2017-12-04T14:00:00,40.51,42.25850049,40.4030415,42.19499997,52584.7934103,2169251.63752
148,2017-12-04T14:30:00,42.19499997,43.0,41.30000001,41.50000011,34526.4502623,1459822.46543
149,2017-12-04T15:00:00,41.5000001,42.49000009,41.30000001,41.8,11273.7213641,472252.319225
150,2017-12-04T15:30:00,41.8,42.74900068,41.5584,42.5900001,10465.5583474,438531.118801
151,2017-12-04T16:00:00,42.5900001,42.9,41.75,41.75,15682.9713556,665834.026968
152,2017-12-04T16:30:00,41.7,41.89999994,40.8,40.8,14808.1383402,611713.046504
153,2017-12-04T17:00:00,40.8,40.8,39.77,39.8,13273.9044256,532736.587394
154,2017-12-04T17:30:00,39.795046,41.0,39.67000001,40.29899999,9966.61471176,400867.413342
155,2017-12-04T18:00:00,40.17628997,40.2,39.0,39.77,11099.7121658,438376.351167
156,2017-12-04T18:30:00,39.93420441,40.49999999,39.79134008,40.1199998,3185.57044618,127677.42956
157,2017-12-04T19:00:00,40.0599999,40.99,40.0599999,40.9,5671.52974607,230694.729522
158,2017-12-04T19:30:00,40.90145796,40.93772898,39.94,40.45,2244.86189997,90616.2397817
159,2017-12-04T20:00:00,40.45,40.67989999,40.3,40.4,1956.85935627,79296.3722503
160,2017-12-04T20:30:00,40.4,41.00999999,40.4,40.99,2123.99321719,86917.8820505
161,2017-12-04T21:00:00,40.9,41.8,40.61690769,41.8,6611.10714823,272965.129004
162,2017-12-04T21:30:00,41.8,41.95000009,41.19456,41.19456,5342.42382556,222127.131557
163,2017-12-04T22:00:00,41.38,41.80115656,41.05,41.39001181,1390.82539205,57773.8717334
164,2017-12-04T22:30:00,41.69999998,42.11,41.55000043,41.8,3757.60449495,157484.015096
165,2017-12-04T23:00:00,41.63,42.2,41.50000001,41.958,4653.09103352,194900.780483
166,2017-12-04T23:30:00,41.958,42.15,41.601,41.87,3070.7111856,128424.407766
167,2017-12-05T00:00:00,41.87,41.87,40.53,40.6,4359.06784463,178212.073212
168,2017-12-05T00:30:00,40.71899962,41.54999997,40.69999994,41.4585,3135.15013039,128877.359453
169,2017-12-05T01:00:00,41.44739418,41.44739418,40.80000006,40.90806156,1575.68400386,64698.9425249
170,2017-12-05T01:30:00,40.90806156,40.99999985,40.52000001,40.521,2302.99569765,93907.5748076
171,2017-12-05T02:00:00,40.521,40.76640974,40.2975,40.42983777,1880.61233807,76202.1695705
172,2017-12-05T02:30:00,40.42983777,40.68749973,40.11,40.4989984,4265.48209002,172258.706212
173,2017-12-05T03:00:00,40.45999999,40.76640964,40.13000006,40.76640964,1992.80732229,80672.8107974
174,2017-12-05T03:30:00,40.50640964,41.12910003,40.5,40.819,2854.10375933,116486.784212
175,2017-12-05T04:00:00,41.0,41.0,40.1,40.4,3408.14887877,137924.718876
176,2017-12-05T04:30:00,40.25,40.6967697,40.05,40.49989999,547.20927038,21974.534601
177,2017-12-05T05:00:00,40.49989996,40.55,40.100008,40.55,671.07845634,27128.8738804
178,2017-12-05T05:30:00,40.35500161,40.55,40.3520003,40.37,819.94812357,33114.444282
179,2017-12-05T06:00:00,40.35200035,40.4,40.100008,40.2751809,1742.35912016,70058.3119224
180,2017-12-05T06:30:00,40.4,40.819,40.4,40.819,1020.59175987,41440.1447014
181,2017-12-05T07:00:00,40.819,41.0,40.819,40.999,633.69024979,25959.3188317
182,2017-12-05T07:30:00,40.99899999,41.024,40.55929129,40.61000236,1000.08615313,40935.4993293
183,2017-12-05T08:00:00,40.61000291,40.98634144,40.3321,40.5,2205.27837527,89327.8791844
184,2017-12-05T08:30:00,40.5,40.9675218,40.5,40.58,787.49078876,31994.024601
185,2017-12-05T09:00:00,40.5200003,40.58,40.30000001,40.559,801.07001647,32383.1386779
186,2017-12-05T09:30:00,40.559,40.5597558,40.4,40.4,4221.98614563,170701.060502
187,2017-12-05T10:00:00,40.368,40.39995959,39.35290001,40.2,5190.48430109,206629.325138
188,2017-12-05T10:30:00,40.14999999,41.024,40.1,40.44249019,3658.23216737,149136.390374
189,2017-12-05T11:00:00,40.56884551,40.9,40.4,40.9,1112.57545988,45168.1689676
190,2017-12-05T11:30:00,40.9,41.12910003,40.9,41.02910003,2759.18382093,113168.821194
191,2017-12-05T12:00:00,41.12910003,42.87,41.12910003,42.1,14440.208121,608452.085145
192,2017-12-05T12:30:00,42.1,42.87,41.23202323,41.80000001,8391.49335194,355537.227422
193,2017-12-05T13:00:00,41.80000001,42.43999998,41.5,41.5,2792.7820326,117206.802974
194,2017-12-05T13:30:00,41.5,41.60000001,40.9,40.9,5417.51463943,222465.724476
195,2017-12-05T14:00:00,40.85,41.64,40.82937858,40.93110001,1734.30883749,71422.6253143
196,2017-12-05T14:30:00,40.94110004,41.15,40.85,40.87042053,1423.81409392,58368.6024557
197,2017-12-05T15:00:00,40.836,41.0,40.38875,40.50000003,3469.93205183,140659.994691
198,2017-12-05T15:30:00,40.79263747,40.9,40.42,40.6,1464.51565844,59624.5776996
199,2017-12-05T16:00:00,40.6,40.86999755,39.96866587,40.6,1945.82657922,78445.9315376
